<?xml version="1.0" encoding="UTF-8"?>
<!DOCTYPE svg  PUBLIC '-//W3C//DTD SVG 1.1//EN'  'http://www.w3.org/Graphics/SVG/1.1/DTD/svg11.dtd'>
<svg version="1.1" viewBox="0 0 24 22" width="24px" height="24px">
<defs>
<path id="a" d="m22.65 8.5c-0.26-0.78-2.29-7.03-2.54-7.81-0.14-0.41-0.52-0.69-0.96-0.69-0.44 0.01-0.81 0.28-0.95 0.69-0.16 0.5-0.96 2.97-2.4 7.42h-7.6c-1.45-4.45-2.25-6.92-2.41-7.42-0.14-0.41-0.51-0.68-0.95-0.69h-0.01c-0.43 0-0.81 0.28-0.95 0.69-0.17 0.52-1.01 3.13-2.53 7.81-0.13 0.39-1.16 3.54-1.28 3.93-0.2 0.6 0.01 1.24 0.52 1.61 1.1 0.81 9.96 7.24 11.07 8.05h0.01l0.01 0.01-0.01-0.01c0.02 0.01 0.04 0.03 0.06 0.04h0.01l0.01 0.01c0.01 0 0.02 0.01 0.03 0.01s0.02 0.01 0.03 0.01 0.01 0.01 0.01 0.01h0.01c0.02 0 0.03 0.01 0.04 0.01h0.02s0.01 0 0.01 0.01h0.01 0.08 0.08 0.01 0.01c0-0.01 0.01-0.01 0.01-0.01h0.02c0.01 0 0.02-0.01 0.04-0.01h0.01s0-0.01 0.01-0.01 0.02-0.01 0.03-0.01 0.02-0.01 0.03-0.01l0.01-0.01h0.01c0.02-0.01 0.04-0.03 0.06-0.04h0.01c1.1-0.81 9.97-7.25 11.07-8.05 0.51-0.37 0.72-1.01 0.52-1.61-0.25-0.78-1.15-3.54-1.27-3.93zm-1.32-0.39h-4.34l2.17-6.69 2.17 6.69zm-1.27 2.26-6.53 8.38 3.09-9.51h4.33l-0.89 1.13zm-8.6 11.43v0.01-0.01zm-8.42-12.56h4.34l3.08 9.51-7.42-9.51zm3.97-1.13h-4.35l2.17-6.69 2.18 6.69zm-5.87 4.67c0.07-0.19 0.38-1.17 0.95-2.92l6.99 8.95-7.83-5.68c-0.1-0.15-0.14-0.26-0.11-0.35zm10.5 9.29s0-0.01-0.01-0.01l-0.01-0.01c-0.01 0-0.01-0.01-0.02-0.02v0.01c0.02 0.01 0.04 0.03 0.05 0.04h0.01c-0.01 0-0.01-0.01-0.02-0.01zm-1.46-7.87-1.61-4.96h6.86l-3.44 10.56-1.81-5.6zm2.17 7.86v0.01c-0.01 0.01-0.01 0.01-0.02 0.01 0.02-0.01 0.04-0.03 0.06-0.04v-0.01l-0.02 0.02c-0.01 0.01-0.01 0.01-0.02 0.01zm2.56-3.25 6.99-8.95c0.57 1.75 0.89 2.73 0.95 2.92 0.04 0.13 0 0.27-0.11 0.35-1.05 0.75-3.65 2.65-7.83 5.68z"/>
</defs>
<use fill="#fca326" xlink:href="#a"/>
<use fill-opacity="0" stroke="#000000" stroke-opacity="0" stroke-width="0" xlink:href="#a"/>
</svg>
